<svg xmlns="http://www.w3.org/2000/svg" xml:space="preserve" width="179.995mm" height="88.7301mm" version="1.1" fill="white" style="shape-rendering:geometricPrecision; text-rendering:geometricPrecision; image-rendering:optimizeQuality; fill-rule:evenodd; clip-rule:evenodd"
viewBox="0 0 19322.34 9525.11"
 xmlns:xlink="http://www.w3.org/1999/xlink"
 xmlns:xodm="http://www.corel.com/coreldraw/odm/2003">
 <g id="Layer_x0020_1">
  <metadata id="CorelCorpID_0Corel-Layer"/>
  <g id="_105553167302976">
   <path id="list.svg" class="fil0" d="M19253.41 591.54c-0.45,327.29 -265.14,591.98 -591.98,591.98l-11829.28 -0.45c-326.85,0.45 -591.54,-264.24 -591.54,-591.09 0,-326.84 264.69,-591.53 591.54,-591.53l11829.72 -0.45c326.4,0.45 591.09,265.14 591.09,591.98l0.45 -0.44z"/>
   <path id="list.svg_0" class="fil0" d="M19322.34 4762.33c-0.45,327.29 -265.14,591.98 -591.98,591.98l-11829.28 -0.45c-326.85,0.45 -591.54,-264.24 -591.54,-591.09 0,-326.84 264.69,-591.53 591.54,-591.53l11829.72 -0.45c326.4,0.45 591.09,265.14 591.09,591.98l0.45 -0.44z"/>
   <path id="list.svg_1" class="fil0" d="M19294.66 8933.13c-0.45,327.29 -265.14,591.98 -591.98,591.98l-11829.28 -0.45c-326.85,0.45 -591.54,-264.24 -591.54,-591.09 0,-326.84 264.69,-591.53 591.54,-591.53l11829.72 -0.45c326.4,0.45 591.09,265.14 591.09,591.98l0.45 -0.44z"/>
  </g>
  <path id="caret-left-fill.svg" class="fil0" d="M243.35 5300.17l3917.23 3427.04c761.57,667.54 1587.94,-569.93 1038.11,-1029.14l-2900.39 -2537.46 0.81 -0.2c-114.98,-100.37 -180.98,-245.77 -180.98,-398.15 0,-152.59 66,-297.95 180.77,-398.54l2022.36 -1769.88c161.43,-141.28 322.87,-282.55 484.31,-423.84 398.41,-369.05 511.37,-321.64 540.14,-834.88 0,-395.05 -319.36,-715.44 -714.62,-715.44 -173.12,0 -340.59,62.93 -471.03,177.18l-3915.89 3427.02c-155.01,135.87 -244.14,332.2 -244.14,538.29 0,205.79 89.13,402.15 244.43,537.72l-1.08 0.27z"/>
 </g>
</svg>
