<?xml version="1.0" encoding="UTF-8"?>
<!DOCTYPE svg PUBLIC "-//W3C//DTD SVG 1.1//EN" "http://www.w3.org/Graphics/SVG/1.1/DTD/svg11.dtd">
<!-- Creator: CorelDRAW -->
<svg xmlns="http://www.w3.org/2000/svg" xml:space="preserve" width="248.953mm" height="106.476mm" version="1.1" style="shape-rendering:geometricPrecision; text-rendering:geometricPrecision; image-rendering:optimizeQuality; fill-rule:evenodd; clip-rule:evenodd"
viewBox="0 0 29534.12 12631.6"
 xmlns:xlink="http://www.w3.org/1999/xlink"
 xmlns:xodm="http://www.corel.com/coreldraw/odm/2003">
 <defs>
  <style type="text/css">
   <![CDATA[
    .fil0 {fill:white}
   ]]>
  </style>
 </defs>
 <g id="Layer_x0020_1">
  <metadata id="CorelCorpID_0Corel-Layer"/>
  <path id="list.svg" class="fil0" d="M54.86 11847.14c0.59,-434.02 351.61,-785.04 785.04,-785.04l15687.25 0.61c433.45,-0.61 784.46,350.42 784.46,783.86 0,433.43 -351.01,784.45 -784.46,784.45l-15687.84 0.59c-432.85,-0.59 -783.86,-351.62 -783.86,-785.04l-0.59 0.58z"/>
  <path id="list.svg_1" class="fil0" d="M71.33 785.04c0.61,-434.03 351.62,-785.04 785.04,-785.04l15687.26 0.59c433.44,-0.59 784.46,350.42 784.46,783.87 0,433.43 -351.02,784.44 -784.46,784.44l-15687.84 0.61c-432.85,-0.61 -783.86,-351.62 -783.86,-785.04l-0.61 0.58z"/>
  <path id="list.svg_1_0" class="fil0" d="M-0 6344.71c0.59,-434.02 351.62,-785.04 785.04,-785.04l15687.26 0.61c433.44,-0.61 784.46,350.42 784.46,783.86 0,433.43 -351.02,784.45 -784.46,784.45l-15687.84 0.59c-432.85,-0.59 -783.87,-351.62 -783.87,-785.04l-0.59 0.58z"/>
  <path id="caret-left-fill.svg" class="fil0" d="M29211.4 5602.84l-5194.78 -4544.73c-1009.94,-885.24 -2105.82,755.81 -1376.68,1364.78l3846.33 3365.02 -1.07 0.27c152.48,133.11 240.01,325.91 240.01,527.99 0,202.35 -87.53,395.12 -239.72,528.53l-2681.93 2347.1c-214.09,187.36 -428.18,374.7 -642.26,562.06 -528.34,489.41 -678.14,426.55 -716.3,1107.17 0,523.88 423.52,948.77 947.69,948.77 229.58,0 451.66,-83.46 624.64,-234.96l5193.01 -4544.7c205.57,-180.19 323.77,-440.54 323.77,-713.85 0,-272.9 -118.21,-533.3 -324.15,-713.09l1.44 -0.36z"/>
 </g>
</svg>
