<svg xmlns="http://www.w3.org/2000/svg" xml:space="preserve" width="169.331mm" height="29.2988mm" version="1.1" style="shape-rendering:geometricPrecision; text-rendering:geometricPrecision; image-rendering:optimizeQuality; fill-rule:evenodd; clip-rule:evenodd"
viewBox="0 0 15315.86 2650.06"
 xmlns:xlink="http://www.w3.org/1999/xlink">
 <defs>
  <style type="text/css">
   <![CDATA[
    .fil0 {fill:white}
    .fil1 {fill:white;fill-rule:nonzero}
   ]]>
  </style>
 </defs>
 <g id="Layer_x0020_1">
  <metadata id="CorelCorpID_0Corel-Layer"/>
  <g id="_105553131233952">
   <polygon class="fil0" points="1023.27,2649.4 1023.27,2650.06 "/>
   <path class="fil0" d="M1388.3 278.01c53.12,-59.57 119.22,-128.42 53.64,-228.79 -68.43,-72.54 -172.08,-59.77 -233.09,4.94l-1047.46 1052.39c-508.89,658.2 286.22,1495.17 990.72,1025.01l1097.69 -1099.11c102.82,-137.53 -54.82,-299.76 -204.14,-189.06l-1078.37 1070.72c-457.3,288.67 -878.21,-298.21 -580.43,-637.82l1001.45 -998.28z"/>
   <path class="fil0" d="M1473.06 2225.39c-53,59.67 -118.98,128.64 -53.2,228.88 68.56,72.41 172.2,59.45 233.08,-5.37l1045.48 -1054.35c507.65,-659.16 -289.02,-1494.63 -992.65,-1023.16l-1095.62 1101.18c-102.57,137.72 55.38,299.65 204.5,188.67l1076.36 -1072.75c456.76,-289.53 878.77,296.57 581.63,636.73l-999.57 1000.17z"/>
  </g>
  <path class="fil1" d="M4403.11 1732.26c256.54,0 394.39,-107.22 394.39,-315.89 0,-172.31 -74.67,-256.55 -269.95,-296.76l-93.81 -19.14c-91.9,-17.23 -128.27,-40.2 -128.27,-105.3 0,-68.92 55.52,-103.38 168.47,-103.38 114.87,0 206.77,26.8 268.04,47.87l0 -179.97c-68.92,-30.64 -156.99,-53.61 -292.92,-53.61 -256.55,0 -379.07,120.61 -379.07,306.33 0,183.79 99.55,260.38 254.62,291l91.9 21.07c101.48,19.14 137.84,47.86 137.84,112.95 0,68.92 -53.6,107.21 -187.62,107.21 -137.84,0 -216.34,-28.72 -292.92,-61.26l0 179.97c76.58,42.11 199.11,68.92 329.3,68.92z"/>
  <path id="_1" class="fil1" d="M5260.8 1732.26c124.45,0 220.17,-42.12 302.5,-105.3l9.57 0 22.97 88.07 216.35 0 0 -991.72 -250.81 0 0 754.32c-55.52,28.72 -122.53,57.44 -199.11,57.44 -114.87,0 -151.25,-40.2 -151.25,-141.67l0 -670.09 -250.8 0 0 721.78c0,195.28 111.04,287.18 300.57,287.18z"/>
  <path id="_2" class="fil1" d="M6036.19 1996.46l250.8 0 0 -315.89c42.12,24.88 116.79,51.69 222.08,51.69 269.95,0 449.91,-143.59 449.91,-522.66l0 -21.07c0,-365.67 -183.79,-484.37 -386.73,-484.37 -126.36,0 -224,42.12 -285.26,105.3l-9.57 0 0 -86.15 -241.23 0 0 1273.16zm434.59 -448c-80.41,0 -149.33,-24.89 -183.79,-49.78l0 -539.89c36.38,-24.88 103.38,-51.69 193.36,-51.69 139.76,0 220.17,61.27 220.17,298.66l0 36.38c0,233.57 -86.15,306.33 -229.74,306.33z"/>
  <path id="_3" class="fil1" d="M7133.21 1996.46l250.8 0 0 -315.89c42.12,24.88 116.79,51.69 222.08,51.69 269.95,0 449.91,-143.59 449.91,-522.66l0 -21.07c0,-365.67 -183.79,-484.37 -386.73,-484.37 -126.36,0 -224,42.12 -285.26,105.3l-9.57 0 0 -86.15 -241.23 0 0 1273.16zm434.59 -448c-80.41,0 -149.33,-24.89 -183.79,-49.78l0 -539.89c36.38,-24.88 103.38,-51.69 193.36,-51.69 139.76,0 220.17,61.27 220.17,298.66l0 36.38c0,233.57 -86.15,306.33 -229.74,306.33z"/>
  <polygon id="_4" class="fil1" points="8235.97,1715.03 8488.68,1715.03 8488.68,315.51 8235.97,315.51 "/>
  <path id="_5" class="fil1" d="M8858.19 1994.55c193.36,0 306.32,-122.53 371.41,-312.07l359.93 -959.17 -241.24 0 -220.16 582.02 -7.66 0 -231.66 -582.02 -264.2 0 373.33 890.25 -34.46 88.07c-36.37,84.24 -72.75,103.38 -162.73,103.38 -34.46,0 -70.84,-1.92 -101.48,-11.49l0 170.39c34.46,19.15 105.3,30.64 158.91,30.64z"/>
  <path id="_6" class="fil1" d="M10150.48 1732.26c141.68,0 233.58,-36.38 296.76,-74.67l0 -181.88c-49.78,24.89 -132.1,59.35 -248.89,59.35 -181.88,0 -266.12,-89.98 -266.12,-308.23l0 -38.3c0,-193.36 97.64,-285.26 258.46,-285.26 114.87,0 170.4,19.15 246.97,49.77l0 -189.54c-63.18,-36.38 -141.67,-59.35 -269.95,-59.35 -292.92,0 -495.85,166.57 -495.85,507.35l0 28.72c0,325.47 176.13,492.04 478.62,492.04z"/>
  <path id="_7" class="fil1" d="M11057.97 1732.26c172.31,0 289.09,-45.95 358.01,-91.9l0 -164.65c-84.24,36.38 -178.05,65.1 -300.57,65.1 -179.97,0 -283.35,-63.18 -300.58,-254.63l635.62 0 0 -91.9c0,-317.8 -126.36,-488.2 -426.93,-488.2 -268.04,0 -465.23,172.31 -465.23,499.69l0 24.89c0,317.81 166.56,501.61 499.69,501.61zm-40.2 -848.14c122.52,0 185.7,65.1 185.7,239.32l-388.64 0c13.4,-187.63 112.95,-239.32 202.94,-239.32z"/>
  <path id="_8" class="fil1" d="M11622.75 1715.03l250.8 0 0 -758.15c55.52,-22.97 134.02,-49.78 202.94,-49.78 122.52,0 156.98,38.3 156.98,132.1l0 675.83 252.72 0 0 -735.17c0,-197.2 -99.56,-275.7 -289.09,-275.7 -122.53,0 -239.32,44.04 -323.56,107.22l-9.57 0 0 -88.07 -241.23 0 0 991.72z"/>
  <path id="_9" class="fil1" d="M13050.99 1726.52c97.64,0 156.98,-21.07 193.36,-40.2l0 -166.56c-28.72,9.57 -70.84,15.31 -107.21,15.31 -93.81,0 -130.19,-28.72 -130.19,-112.95l0 -513.09 227.83 0 0 -185.71 -227.83 0 0 -233.57 -246.97 0 0 233.57 -132.1 0 0 185.71 132.1 0 0 553.3c0,197.19 111.04,264.2 291.01,264.2z"/>
  <path id="_10" class="fil1" d="M13410.91 1715.03l250.8 0 0 -717.94c61.26,-36.38 147.41,-61.27 235.49,-61.27 24.89,0 57.44,3.84 78.49,7.66l0 -222.09c-7.65,-5.74 -30.63,-7.65 -57.44,-7.65 -105.29,0 -204.85,51.69 -256.54,126.36l-9.57 0 0 -116.79 -241.23 0 0 991.72z"/>
  <path id="_11" class="fil1" d="M14350.94 1732.26c124.45,0 208.68,-40.2 252.72,-97.64l11.49 0 19.15 80.41 204.85 0 0 -710.29c0,-214.43 -135.93,-298.66 -369.5,-298.66 -137.84,0 -248.89,19.15 -346.53,53.61l0 176.13c65.1,-19.14 153.16,-30.63 250.8,-30.63 162.74,0 216.35,28.72 216.35,151.24l0 67.01 -218.25 26.8c-201.02,28.72 -331.22,112.95 -331.22,300.58 0,191.45 128.28,281.43 310.15,281.43zm78.5 -170.4c-82.33,0 -141.68,-38.29 -141.68,-130.18 0,-91.9 45.95,-126.36 139.76,-135.93l162.74 -17.23 0 229.74c-30.64,30.63 -97.64,53.6 -160.82,53.6z"/>
  <polygon id="_12" class="fil1" points="15063.14,1715.03 15315.86,1715.03 15315.86,315.51 15063.14,315.51 "/>
 </g>
</svg>
